{
	"info": {
		"_postman_id": "c4130024-2893-4a5f-9c12-4c7fde7d87d8",
		"name": "CC",
		"schema": "https://schema.getpostman.com/json/collection/v2.1.0/collection.json"
	},
	"item": [
		{
			"name": "get",
			"item": [
				{
					"name": "200 Get all Users",
					"request": {
						"method": "GET",
						"header": [],
						"body": {
							"mode": "raw",
							"raw": ""
						},
						"url": {
							"raw": "http://localhost/users",
							"protocol": "http",
							"host": [
								"localhost"
							],
							"path": [
								"users"
							]
						}
					},
					"response": []
				},
				{
					"name": "200 Get all files",
					"request": {
						"method": "GET",
						"header": [],
						"body": {
							"mode": "raw",
							"raw": ""
						},
						"url": {
							"raw": "http://localhost/files",
							"protocol": "http",
							"host": [
								"localhost"
							],
							"path": [
								"files"
							]
						}
					},
					"response": []
				},
				{
					"name": "200 Get all rights",
					"request": {
						"method": "GET",
						"header": [],
						"body": {
							"mode": "raw",
							"raw": ""
						},
						"url": {
							"raw": "http://localhost/rights",
							"protocol": "http",
							"host": [
								"localhost"
							],
							"path": [
								"rights"
							]
						}
					},
					"response": []
				},
				{
					"name": "200 Get all Users Copy Copy",
					"request": {
						"method": "GET",
						"header": [],
						"body": {
							"mode": "raw",
							"raw": ""
						},
						"url": {
							"raw": "http://localhost/users",
							"protocol": "http",
							"host": [
								"localhost"
							],
							"path": [
								"users"
							]
						}
					},
					"response": []
				},
				{
					"name": "404 -> not found table",
					"request": {
						"method": "GET",
						"header": [],
						"body": {
							"mode": "raw",
							"raw": ""
						},
						"url": {
							"raw": "localhost/ion",
							"host": [
								"localhost"
							],
							"path": [
								"ion"
							]
						}
					},
					"response": []
				},
				{
					"name": "404 get user with id 200 FAILED",
					"request": {
						"method": "GET",
						"header": [],
						"body": {
							"mode": "raw",
							"raw": ""
						},
						"url": {
							"raw": "http://localhost/users/200",
							"protocol": "http",
							"host": [
								"localhost"
							],
							"path": [
								"users",
								"200"
							]
						}
					},
					"response": []
				},
				{
					"name": "200 get user with id 2",
					"request": {
						"method": "GET",
						"header": [],
						"body": {
							"mode": "raw",
							"raw": ""
						},
						"url": {
							"raw": "http://localhost/users/2",
							"protocol": "http",
							"host": [
								"localhost"
							],
							"path": [
								"users",
								"2"
							]
						}
					},
					"response": []
				}
			]
		},
		{
			"name": "post",
			"item": [
				{
					"name": "201/409 files id200",
					"request": {
						"method": "POST",
						"header": [
							{
								"key": "Content-Type",
								"name": "Content-Type",
								"value": "application/json",
								"type": "text"
							}
						],
						"body": {
							"mode": "raw",
							"raw": "{\n\t\"id\" : 200,\n\t\"name\" : \"Vasiliu\",\n\t\"location\" : \"pe strada\",\n\t\"size\" : \"15\"\n}"
						},
						"url": {
							"raw": "http://localhost/files",
							"protocol": "http",
							"host": [
								"localhost"
							],
							"path": [
								"files"
							],
							"query": [
								{
									"key": "id",
									"value": "",
									"disabled": true
								}
							]
						}
					},
					"response": []
				},
				{
					"name": "201/409 rights id 200 Copy",
					"request": {
						"method": "POST",
						"header": [
							{
								"key": "Content-Type",
								"name": "Content-Type",
								"type": "text",
								"value": "application/json"
							}
						],
						"body": {
							"mode": "raw",
							"raw": "{\n\t\"id\" : 200,\n\t\"user_id\" : 200,\n\t\"file_id\" : 200,\n\t\"rights\" : 50\n}"
						},
						"url": {
							"raw": "http://localhost/rights",
							"protocol": "http",
							"host": [
								"localhost"
							],
							"path": [
								"rights"
							],
							"query": [
								{
									"key": "id",
									"value": "",
									"disabled": true
								}
							]
						}
					},
					"response": []
				},
				{
					"name": "201/409 users id 200",
					"request": {
						"method": "POST",
						"header": [
							{
								"key": "Content-Type",
								"name": "Content-Type",
								"type": "text",
								"value": "application/json"
							}
						],
						"body": {
							"mode": "raw",
							"raw": "{\n\t\"id\" : 200,\n\t\"username\" : \"vasivasi\",\n\t\"mail\" : \"vasi@vasivasi@yahoo.com\"\n}"
						},
						"url": {
							"raw": "http://localhost/users",
							"protocol": "http",
							"host": [
								"localhost"
							],
							"path": [
								"users"
							],
							"query": [
								{
									"key": "id",
									"value": "",
									"disabled": true
								}
							]
						}
					},
					"response": []
				},
				{
					"name": "400 users id 200 - bad request",
					"request": {
						"method": "POST",
						"header": [
							{
								"key": "Content-Type",
								"name": "Content-Type",
								"type": "text",
								"value": "application/json"
							}
						],
						"body": {
							"mode": "raw",
							"raw": "{\n\t\"id\" : 200,\n\t\"username\" : \"vasivasi\"\n}"
						},
						"url": {
							"raw": "http://localhost/users",
							"protocol": "http",
							"host": [
								"localhost"
							],
							"path": [
								"users"
							],
							"query": [
								{
									"key": "id",
									"value": "",
									"disabled": true
								}
							]
						}
					},
					"response": []
				},
				{
					"name": "415 users id 200 -Unsupported Media Type",
					"request": {
						"method": "POST",
						"header": [
							{
								"key": "Content-Type",
								"name": "Content-Type",
								"type": "text",
								"value": "application/json"
							}
						],
						"body": {
							"mode": "raw",
							"raw": "{\n\t\"id\" : 200,\n\t\"username\" : \"vasivasi\"asdadasd\n}"
						},
						"url": {
							"raw": "http://localhost/users",
							"protocol": "http",
							"host": [
								"localhost"
							],
							"path": [
								"users"
							],
							"query": [
								{
									"key": "id",
									"value": "",
									"disabled": true
								}
							]
						}
					},
					"response": []
				}
			]
		},
		{
			"name": "delete",
			"item": [
				{
					"name": "405 /files",
					"request": {
						"method": "DELETE",
						"header": [
							{
								"key": "Content-Type",
								"name": "Content-Type",
								"type": "text",
								"value": "application/json"
							}
						],
						"body": {
							"mode": "raw",
							"raw": ""
						},
						"url": {
							"raw": "http://localhost/files",
							"protocol": "http",
							"host": [
								"localhost"
							],
							"path": [
								"files"
							],
							"query": [
								{
									"key": "id",
									"value": "",
									"disabled": true
								}
							]
						}
					},
					"response": []
				},
				{
					"name": "200/404 /files id-200",
					"request": {
						"method": "DELETE",
						"header": [
							{
								"key": "Content-Type",
								"name": "Content-Type",
								"type": "text",
								"value": "application/json"
							}
						],
						"body": {
							"mode": "raw",
							"raw": ""
						},
						"url": {
							"raw": "http://localhost/files/200",
							"protocol": "http",
							"host": [
								"localhost"
							],
							"path": [
								"files",
								"200"
							],
							"query": [
								{
									"key": "id",
									"value": "",
									"disabled": true
								}
							]
						}
					},
					"response": []
				}
			]
		},
		{
			"name": "put",
			"item": [
				{
					"name": "405 /files",
					"request": {
						"method": "PUT",
						"header": [
							{
								"key": "Content-Type",
								"name": "Content-Type",
								"type": "text",
								"value": "application/json"
							}
						],
						"body": {
							"mode": "raw",
							"raw": ""
						},
						"url": {
							"raw": "http://localhost/files",
							"protocol": "http",
							"host": [
								"localhost"
							],
							"path": [
								"files"
							],
							"query": [
								{
									"key": "id",
									"value": "",
									"disabled": true
								}
							]
						}
					},
					"response": []
				},
				{
					"name": "200 users id 2",
					"request": {
						"method": "PUT",
						"header": [
							{
								"key": "Content-Type",
								"name": "Content-Type",
								"type": "text",
								"value": "application/json"
							}
						],
						"body": {
							"mode": "raw",
							"raw": "{\n\t\"username\" : \"vasivasi IONION\",\n\t\"mail\" : \"vasi@vasivasi@yahoo.com\"\n}"
						},
						"url": {
							"raw": "http://localhost/users/2",
							"protocol": "http",
							"host": [
								"localhost"
							],
							"path": [
								"users",
								"2"
							],
							"query": [
								{
									"key": "id",
									"value": "",
									"disabled": true
								}
							]
						}
					},
					"response": []
				}
			]
		}
	]
}